0	: NOP	00	1
1	: LXI	B	01	3
2	: STAX	B	02	1
3	: INX	B	03	1
4	: INR	B	04	1
5	: DCR	B	05	1
6	: MVI	B,	Data	06	2
7	: RLC	07	1
9	: DAD	B	09	1
10	: LDAX	B	0A	1
11	: DCX	B	0B	1
12	: INR	C	0C	1
13	: DCR	C	0D	1
14	: MVI	C,	Data	0E	2
15	: RRC	0F	1
17	: LXI	D	11	3
18	: STAX	D	12	1
19	: INX	D	13	1
20	: INR	D	14	1
21	: DCR	D	15	1
22	: MVI	D,	Data	16	2
23	: RAL	17	1
25	: DAD	D	19	1
26	: LDAX	D	1A	1
27	: DCX	D	1B	1
28	: INR	E	1C	1
29	: DCR	E	1D	1
30	: MVI	E,	Data	1E	2
31	: RAR	1F	1
32	: RIM	20	1
33	: LXI	H	21	3
34	: SHLD	Address	22	3
35	: INX	H	23	1
36	: INR	H	24	1
37	: DCR	H	25	1
38	: MVI	H,	Data	26	2
39	: DAA	27	1
41	: DAD	H	29	1
42	: LHLD	Address	2A	3
43	: DCX	H	2B	1
44	: INR	L	2C	1
45	: DCR	L	2D	1
46	: MVI	L,	Data	2E	2
47	: CMA	2F	1
48	: SIM	30	1
49	: LXI	SP	31	3
50	: STA	Address	32	3
51	: INX	SP	33	1
52	: INR	M	34	1
53	: DCR	M	35	1
54	: MVI	M,	Data	36	2
55	: STC	37	1
57	: DAD	SP	39	1
58	: LDA	Address	3A	3
59	: DCX	SP	3B	1
60	: INR	A	3C	1
61	: DCR	A	3D	1
62	: MVI	A,	Data	3E	2
63	: CMC	3F	1
64	: MOV	B,	B	40	1
65	: MOV	B,	C	41	1
66	: MOV	B,	D	42	1
67	: MOV	B,	E	43	1
68	: MOV	B,	H	44	1
69	: MOV	B,	L	45	1
70	: MOV	B,	M	46	1
71	: MOV	B,	A	47	1
72	: MOV	C,	B	48	1
73	: MOV	C,	C	49	1
74	: MOV	C,	D	4A	1
75	: MOV	C,	E	4B	1
76	: MOV	C,	H	4C	1
77	: MOV	C,	L	4D	1
78	: MOV	C,	M	4E	1
79	: MOV	C,	A	4F	1
80	: MOV	D,	B	50	1
81	: MOV	D,	C	51	1
82	: MOV	D,	D	52	1
83	: MOV	D,	E	53	1
84	: MOV	D,	H	54	1
85	: MOV	D,	L	55	1
86	: MOV	D,	M	56	1
87	: MOV	D,	A	57	1
88	: MOV	E,	B	58	1
89	: MOV	E,	C	59	1
90	: MOV	E,	D	5A	1
91	: MOV	E,	E	5B	1
92	: MOV	E,	H	5C	1
93	: MOV	E,	L	5D	1
94	: MOV	E,	M	5E	1
95	: MOV	E,	A	5F	1
96	: MOV	H,	B	60	1
97	: MOV	H,	C	61	1
98	: MOV	H,	D	62	1
99	: MOV	H,	E	63	1
100	: MOV	H,	H	64	1
101	: MOV	H,	L	65	1
102	: MOV	H,	M	66	1
103	: MOV	H,	A	67	1
104	: MOV	L,	B	68	1
105	: MOV	L,	C	69	1
106	: MOV	L,	D	6A	1
107	: MOV	L,	E	6B	1
108	: MOV	L,	H	6C	1
109	: MOV	L,	L	6D	1
110	: MOV	L,	M	6E	1
111	: MOV	L,	A	6F	1
112	: MOV	M,	B	70	1
113	: MOV	M,	C	71	1
114	: MOV	M,	D	72	1
115	: MOV	M,	E	73	1
116	: MOV	M,	H	74	1
117	: MOV	M,	L	75	1
118	: HLT	76	1
119	: MOV	M,	A	77	1
120	: MOV	A,	B	78	1
121	: MOV	A,	C	79	1
122	: MOV	A,	D	7A	1
123	: MOV	A,	E	7B	1
124	: MOV	A,	H	7C	1
125	: MOV	A,	L	7D	1
126	: MOV	A,	M	7E	1
127	: MOV	A,	A	7F	1
128	: ADD	B	80	1
129	: ADD	C	81	1
130	: ADD	D	82	1
131	: ADD	E	83	1
132	: ADD	H	84	1
133	: ADD	L	85	1
134	: ADD	M	86	1
135	: ADD	A	87	1
136	: ADC	B	88	1
137	: ADC	C	89	1
138	: ADC	D	8A	1
139	: ADC	E	8B	1
140	: ADC	H	8C	1
141	: ADC	L	8D	1
142	: ADC	M	8E	1
143	: ADC	A	8F	1
144	: SUB	B	90	1
145	: SUB	C	91	1
146	: SUB	D	92	1
147	: SUB	E	93	1
148	: SUB	H	94	1
149	: SUB	L	95	1
150	: SUB	M	96	1
151	: SUB	A	97	1
152	: SBB	B	98	1
153	: SBB	C	99	1
154	: SBB	D	9A	1
155	: SBB	E	9B	1
156	: SBB	H	9C	1
157	: SBB	L	9D	1
158	: SBB	M	9E	1
159	: SBB	A	9F	1
160	: ANA	B	A0	1
161	: ANA	C	A1	1
162	: ANA	D	A2	1
163	: ANA	E	A3	1
164	: ANA	H	A4	1
165	: ANA	L	A5	1
166	: ANA	M	A6	1
167	: ANA	A	A7	1
168	: XRA	B	A8	1
169	: XRA	C	A9	1
170	: XRA	D	AA	1
171	: XRA	E	AB	1
172	: XRA	H	AC	1
173	: XRA	L	AD	1
174	: XRA	M	AE	1
175	: XRA	A	AF	1
176	: ORA	B	B0	1
177	: ORA	C	B1	1
178	: ORA	D	B2	1
179	: ORA	E	B3	1
180	: ORA	H	B4	1
181	: ORA	L	B5	1
182	: ORA	M	B6	1
183	: ORA	A	B7	1
184	: CMP	B	B8	1
185	: CMP	C	B9	1
186	: CMP	D	BA	1
187	: CMP	E	BB	1
188	: CMP	H	BC	1
189	: CMP	M	BD	1
191	: CMP	A	BF	1
192	: RNZ	C0	1
193	: POP	B	C1	1
194	: JNZ	Label	C2	3
195	: JMP	Label	C3	3
196	: CNZ	Label	C4	3
197	: PUSH	B	C5	1
198	: ADI	Data	C6	2
199	: RST	0	C7	1
200	: RZ	C8	1
201	: RET	C9	1
202	: JZ	Label	CA	3
204	: CZ	Label	CC	3
205	: CALL	Label	CD	3
206	: ACI	Data	CE	2
207	: RST	1	CF	1
208	: RNC	D0	1
209	: POP	D	D1	1
210	: JNC	Label	D2	3
211	: OUT	Port-Address	D3	2
212	: CNC	Label	D4	3
213	: PUSH	D	D5	1
214	: SUI	Data	D6	2
215	: RST	2	D7	1
216	: RC	D8	1
218	: JC	Label	DA	3
219	: IN	Port-address	DB	2
220	: CC	Label	DC	3
222	: SBI	Data	DE	2
223	: RST	3	DF	1
224	: RPO	E0	1
225	: POP	H	E1	1
226	: JPO	Label	E2	3
227	: XTHL	E3	1
228	: CPO	Label	E4	3
229	: PUSH	H	E5	1
230	: ANI	Data	E6	2
231	: RST	4	E7	1
232	: RPE	E8	1
233	: PCHL	E9	1
234	: JPE	Label	EA	3
235	: XCHG	EB	1
236	: CPE	Label	EC	3
238	: XRI	Data	EE	2
239	: RST	5	EF	1
240	: RP	F0	1
241	: POP	PSW	F1	1
242	: JP	Label	F2	3
243	: DI	F3	1
244	: CP	Label	F4	3
245	: PUSH	PSW	F5	1
246	: ORI	Data	F6	2
247	: RST	6	F7	1
248	: RM	F8	1
249	: SPHL	F9	1
250	: JM	Label	FA	3
251	: EI	FB	1
252	: CM	Label	FC	3
254	: CPI	Data	FE	2